%YAML 1.1
%TAG !u! tag:unity3d.com,2011:
--- !u!114 &11400000
MonoBehaviour:
  m_ObjectHideFlags: 0
  m_CorrespondingSourceObject: {fileID: 0}
  m_PrefabInstance: {fileID: 0}
  m_PrefabAsset: {fileID: 0}
  m_GameObject: {fileID: 0}
  m_Enabled: 1
  m_EditorHideFlags: 0
  m_Script: {fileID: 11500000, guid: 2a761a9f8c37d4340876e3addc8ae1ba, type: 3}
  m_Name: SoundSettingsPreset
  m_EditorClassIdentifier: 
  AudioMixer: {fileID: 24100000, guid: 772df595a365fae409d425d33374beca, type: 2}
  MasterVolumeName: MasterVolume
  MasterVolume: 0
  MusicVolumeName: MusicVolume
  MusicVolume: -6.4285746
  MasterSFXVolumeName: MasterSFXVolume
  MasterSFXVolume: 0
  SFXVolumeName: SFXVolume
  SFXVolume: -31.428572
  UIVolumeName: UIVolume
  UIVolume: 0
