%YAML 1.1
%TAG !u! tag:unity3d.com,2011:
--- !u!114 &11400000
MonoBehaviour:
  m_ObjectHideFlags: 0
  m_CorrespondingSourceObject: {fileID: 0}
  m_PrefabInstance: {fileID: 0}
  m_PrefabAsset: {fileID: 0}
  m_GameObject: {fileID: 0}
  m_Enabled: 1
  m_EditorHideFlags: 0
  m_Script: {fileID: 11500000, guid: dc38003c0e0db6641a4762d4f392de52, type: 3}
  m_Name: PrefabPalette-Default
  m_EditorClassIdentifier: 
  prefabs:
  - gameObject: {fileID: 64030619697221721, guid: 6184f8a77a8c4e748ad082c7237b1861, type: 3}
    settings:
      m_Strength: 50
      m_RotationRangeMin: {x: 0, y: 0, z: 0}
      m_RotationRangeMax: {x: 0, y: 0, z: 0}
      m_ScaleRangeMin: {x: 1, y: 1, z: 1}
      m_ScaleRangeMax: {x: 1, y: 1, z: 1}
      m_UniformScale: {x: 1, y: 1}
      m_UniformBool: 0
      m_XRotationBool: 0
      m_YRotationBool: 0
      m_ZRotationBool: 0
      m_XScaleBool: 0
      m_YScaleBool: 0
      m_ZScaleBool: 0
    name: Coin
  - gameObject: {fileID: 9200971082213286383, guid: 8422671161abecc4fb14af1dc990ca07, type: 3}
    settings:
      m_Strength: 50
      m_RotationRangeMin: {x: 0, y: 0, z: 0}
      m_RotationRangeMax: {x: 0, y: 0, z: 0}
      m_ScaleRangeMin: {x: 1, y: 1, z: 1}
      m_ScaleRangeMax: {x: 1, y: 1, z: 1}
      m_UniformScale: {x: 1, y: 1}
      m_UniformBool: 0
      m_XRotationBool: 0
      m_YRotationBool: 0
      m_ZRotationBool: 0
      m_XScaleBool: 0
      m_YScaleBool: 0
      m_ZScaleBool: 0
    name: Discoin
  - gameObject: {fileID: 7163826552947743114, guid: 2ddada1013e6eb84f9280c5c68405f40, type: 3}
    settings:
      m_Strength: 50
      m_RotationRangeMin: {x: 0, y: 0, z: 0}
      m_RotationRangeMax: {x: 0, y: 0, z: 0}
      m_ScaleRangeMin: {x: 1, y: 1, z: 1}
      m_ScaleRangeMax: {x: 1, y: 1, z: 1}
      m_UniformScale: {x: 1, y: 1}
      m_UniformBool: 0
      m_XRotationBool: 0
      m_YRotationBool: 0
      m_ZRotationBool: 0
      m_XScaleBool: 0
      m_YScaleBool: 0
      m_ZScaleBool: 0
    name: Super Coin
  - gameObject: {fileID: 804515128109494523, guid: 0f70881387e735046b502df9b97f1f81, type: 3}
    settings:
      m_Strength: 50
      m_RotationRangeMin: {x: 0, y: 0, z: 0}
      m_RotationRangeMax: {x: 0, y: 0, z: 0}
      m_ScaleRangeMin: {x: 1, y: 1, z: 1}
      m_ScaleRangeMax: {x: 1, y: 1, z: 1}
      m_UniformScale: {x: 1, y: 1}
      m_UniformBool: 0
      m_XRotationBool: 0
      m_YRotationBool: 0
      m_ZRotationBool: 0
      m_XScaleBool: 0
      m_YScaleBool: 0
      m_ZScaleBool: 0
    name: Super Discoin
  - gameObject: {fileID: 331719272640364755, guid: 8e925ea5e4992df4e8f2f7a91b3172ae, type: 3}
    settings:
      m_Strength: 50
      m_RotationRangeMin: {x: 0, y: 0, z: 0}
      m_RotationRangeMax: {x: 0, y: 0, z: 0}
      m_ScaleRangeMin: {x: 1, y: 1, z: 1}
      m_ScaleRangeMax: {x: 1, y: 1, z: 1}
      m_UniformScale: {x: 1, y: 1}
      m_UniformBool: 0
      m_XRotationBool: 0
      m_YRotationBool: 0
      m_ZRotationBool: 0
      m_XScaleBool: 0
      m_YScaleBool: 0
      m_ZScaleBool: 0
    name: obstacles - hinge
  - gameObject: {fileID: 8002304649430845881, guid: 402a8f626bccb6e49a418fb5d34c1a21, type: 3}
    settings:
      m_Strength: 50
      m_RotationRangeMin: {x: 0, y: 0, z: 0}
      m_RotationRangeMax: {x: 0, y: 0, z: 0}
      m_ScaleRangeMin: {x: 1, y: 1, z: 1}
      m_ScaleRangeMax: {x: 1, y: 1, z: 1}
      m_UniformScale: {x: 1, y: 1}
      m_UniformBool: 0
      m_XRotationBool: 0
      m_YRotationBool: 0
      m_ZRotationBool: 0
      m_XScaleBool: 0
      m_YScaleBool: 0
      m_ZScaleBool: 0
    name: obstacles - fan
