%YAML 1.1
%TAG !u! tag:unity3d.com,2011:
--- !u!1045 &1
EditorBuildSettings:
  m_ObjectHideFlags: 0
  serializedVersion: 2
  m_Scenes:
  - enabled: 1
    path: Assets/Scenes/SceneMainMenu.unity
    guid: 7e3efbcaecac37540bac6b78a889c426
  - enabled: 1
    path: Assets/Scenes/SceneOptions.unity
    guid: 86022c4e1aae9c548862e0d517f6b050
  - enabled: 1
    path: Assets/Scenes/SceneGameplay.unity
    guid: 4b6635f5cf41b2240a54a821329ad743
  - enabled: 1
    path: Assets/Scenes/SceneCredits.unity
    guid: ae9d34a7ed6a0874da5e096dafead700
  - enabled: 1
    path: Assets/Scenes/Gameplay1.unity
    guid: 538f1cc471052f942b953c386f25aa56
  - enabled: 1
    path: Assets/Scenes/Gameplay2.unity
    guid: e9017d5f96b9f09489b4b37e1d6eb914
  - enabled: 1
    path: Assets/Scenes/lose.unity
    guid: 46be163b76aa52540be41b990014665b
  - enabled: 1
    path: Assets/Scenes/win.unity
    guid: 9fff275cb448f1743b170c021678dbee
  m_configObjects: {}
